Replicate	Sample	Dilution	Cytokine	Concentration
R1	CC1/6 F2	A	IL-1B	18.72
R1	CC1/6 F2	B	IL-1B	49.57
R1	CC1/6 F2	C	IL-1B	124.28
R1	PBMC	N	IL-1B	173.03
R1	CC1/6 F2	A	IFN-a	2.13
R1	CC1/6 F2	B	IFN-a	3.98
R1	CC1/6 F2	C	IFN-a	5.76
R1	PBMC	N	IFN-a	6.46
R1	CC1/6 F2	A	IFN-g	1.59
R1	CC1/6 F2	B	IFN-g	1.2
R1	CC1/6 F2	C	IFN-g	1.51
R1	PBMC	N	IFN-g	1.97
R1	CC1/6 F2	A	TNF-a	14.4
R1	CC1/6 F2	B	TNF-a	19.65
R1	CC1/6 F2	C	TNF-a	31.03
R1	PBMC	N	TNF-a	22.84
R1	CC1/6 F2	A	MCP-1	1197
R1	CC1/6 F2	B	MCP-1	6163
R1	CC1/6 F2	C	MCP-1	8806
R1	PBMC	N	MCP-1	6845
R1	CC1/6 F2	A	IL-6	569.17
R1	CC1/6 F2	B	IL-6	1793
R1	CC1/6 F2	C	IL-6	5405
R1	PBMC	N	IL-6	6389
R1	CC1/6 F2	A	IL-8	11657
R1	CC1/6 F2	B	IL-8	9999
R1	CC1/6 F2	C	IL-8	12964
R1	PBMC	N	IL-8	10924
R1	CC1/6 F2	A	IL-10	20.77
R1	CC1/6 F2	B	IL-10	69.98
R1	CC1/6 F2	C	IL-10	226.32
R1	PBMC	N	IL-10	350.54
R1	CC1/6 F2	A	IL-12p70	0.41
R1	CC1/6 F2	B	IL-12p70	0.39
R1	CC1/6 F2	C	IL-12p70	0.43
R1	PBMC	N	IL-12p70	0.67
R1	CC1/6 F2	A	IL17A	<0.15
R1	CC1/6 F2	B	IL17A	0.16
R1	CC1/6 F2	C	IL17A	0.2
R1	PBMC	N	IL17A	0.24
R1	CC1/6 F2	A	IL-18	1.06
R1	CC1/6 F2	B	IL-18	1.23
R1	CC1/6 F2	C	IL-18	1.9
R1	PBMC	N	IL-18	2.91
R1	CC1/6 F2	A	IL-23	1.87
R1	CC1/6 F2	B	IL-23	1.85
R1	CC1/6 F2	C	IL-23	2.43
R1	PBMC	N	IL-23	3.1
R1	CC1/6 F2	A	IL-33	15.83
R1	CC1/6 F2	B	IL-33	14.09
R1	CC1/6 F2	C	IL-33	16.71
R1	PBMC	N	IL-33	24.02
R1	CC44 001F	A	IL-1B	68.76
R1	CC44 001F	B	IL-1B	105.55
R1	PBMC	N	IL-1B	173.03
R1	CC44 001F	A	IFN-a	4.99
R1	CC44 001F	B	IFN-a	5.63
R1	PBMC	N	IFN-a	6.46
R1	CC44 001F	A	IFN-g	1.84
R1	CC44 001F	B	IFN-g	1.26
R1	PBMC	N	IFN-g	1.97
R1	CC44 001F	A	TNF-a	21.45
R1	CC44 001F	B	TNF-a	23.53
R1	PBMC	N	TNF-a	22.84
R1	CC44 001F	A	MCP-1	3706
R1	CC44 001F	B	MCP-1	7169
R1	PBMC	N	MCP-1	6845
R1	CC44 001F	A	IL-6	2324
R1	CC44 001F	B	IL-6	3897
R1	PBMC	N	IL-6	6389
R1	CC44 001F	A	IL-8	12429
R1	CC44 001F	B	IL-8	10883
R1	PBMC	N	IL-8	10924
R1	CC44 001F	A	IL-10	60.61
R1	CC44 001F	B	IL-10	158.7
R1	PBMC	N	IL-10	350.54
R1	CC44 001F	A	IL-12p70	0.4
R1	CC44 001F	B	IL-12p70	0.51
R1	PBMC	N	IL-12p70	0.67
R1	CC44 001F	A	IL17A	<0.15
R1	CC44 001F	B	IL17A	0.32
R1	PBMC	N	IL17A	0.24
R1	CC44 001F	A	IL-18	1.56
R1	CC44 001F	B	IL-18	1.84
R1	PBMC	N	IL-18	2.91
R1	CC44 001F	A	IL-23	3.93
R1	CC44 001F	B	IL-23	2.45
R1	PBMC	N	IL-23	3.1
R1	CC44 001F	A	IL-33	17.8
R1	CC44 001F	B	IL-33	17.8
R1	PBMC	N	IL-33	24.02
R2	CC1/6 F2	A	IL-1B	42.14
R2	CC1/6 F2	B	IL-1B	43.35
R2	CC1/6 F2	C	IL-1B	52.32
R2	PBMC	N	IL-1B	66.68
R2	CC1/6 F2	A	IFN-a	1.88
R2	CC1/6 F2	B	IFN-a	4.27
R2	CC1/6 F2	C	IFN-a	4.72
R2	PBMC	N	IFN-a	5.03
R2	CC1/6 F2	A	IFN-g	<0.69
R2	CC1/6 F2	B	IFN-g	<0.69
R2	CC1/6 F2	C	IFN-g	<0.69
R2	PBMC	N	IFN-g	2.55
R2	CC1/6 F2	A	TNF-a	6.3
R2	CC1/6 F2	B	TNF-a	13.65
R2	CC1/6 F2	C	TNF-a	11.82
R2	PBMC	N	TNF-a	6.46
R2	CC1/6 F2	A	MCP-1	1038.7
R2	CC1/6 F2	B	MCP-1	5974.54
R2	CC1/6 F2	C	MCP-1	6943.25
R2	PBMC	N	MCP-1	5353.18
R2	CC1/6 F2	A	IL-6	665.77
R2	CC1/6 F2	B	IL-6	1412.52
R2	CC1/6 F2	C	IL-6	3240.59
R2	PBMC	N	IL-6	4620.7
R2	CC1/6 F2	A	IL-8	11210.18
R2	CC1/6 F2	B	IL-8	10335.33
R2	CC1/6 F2	C	IL-8	10149.91
R2	PBMC	N	IL-8	10805.49
R2	CC1/6 F2	A	IL-10	9.93
R2	CC1/6 F2	B	IL-10	32.39
R2	CC1/6 F2	C	IL-10	72.07
R2	PBMC	N	IL-10	75.95
R2	CC1/6 F2	A	IL-12p70	<0.57
R2	CC1/6 F2	B	IL-12p70	<0.57
R2	CC1/6 F2	C	IL-12p70	<0.57
R2	PBMC	N	IL-12p70	<0.57
R2	CC1/6 F2	A	IL17A	<0.14
R2	CC1/6 F2	B	IL17A	<0.14
R2	CC1/6 F2	C	IL17A	<0.14
R2	PBMC	N	IL17A	0.16
R2	CC1/6 F2	A	IL-18	0.71
R2	CC1/6 F2	B	IL-18	0.89
R2	CC1/6 F2	C	IL-18	0.78
R2	PBMC	N	IL-18	1.04
R2	CC1/6 F2	A	IL-23	0.86
R2	CC1/6 F2	B	IL-23	1.2
R2	CC1/6 F2	C	IL-23	0.86
R2	PBMC	N	IL-23	1.67
R2	CC1/6 F2	A	IL-33	3.41
R2	CC1/6 F2	B	IL-33	6.52
R2	CC1/6 F2	C	IL-33	4.51
R2	PBMC	N	IL-33	13.58